1,5,10,15,20,25,30,40,50,75
100,20,10,6.25,4.35,3.85,2.94,2.44,1.96,1.33
100,20,10,6.25,4.35,3.85,2.94,2.44,1.96,1.32
100,20,10,6.67,5,4,3.23,2.44,1.92,1.33
100,20,10,6.67,5,3.85,3.125,2.44,1.89,1.25
