1	5	10	15	20	25	30	40	50	75
0.12	8.33	8.35	8.37	8.39	8.13	8.17	8.21	19.02	14.97
0.12	8.33	8.34	8.37	8.39	8.13	8.17	8.21	19.02	19.6
0.07	18.06	20.95	21.19	21.32	21.44	10.72	20.87	21.06	21.39
0.07	14.51	14.65	16.99	29.9	30.11	16.04	30.67	27.42	30
